<?xml version="1.0" standalone="no"?>
<!DOCTYPE svg PUBLIC "-//W3C//DTD SVG 20010904//EN"
 "http://www.w3.org/TR/2001/REC-SVG-20010904/DTD/svg10.dtd">
<svg version="1.0" xmlns="http://www.w3.org/2000/svg"
 width="907.000000pt" height="727.000000pt" viewBox="0 0 907.000000 727.000000"
 preserveAspectRatio="xMidYMid meet">

<g transform="translate(0.000000,727.000000) scale(0.100000,-0.100000)"
fill="#000000" stroke="none">
<path d="M10 3640 l0 -3620 4530 0 4530 0 0 3620 0 3620 -4530 0 -4530 0 0
-3620z m4599 2158 c29 -260 55 -482 58 -494 4 -20 0 -20 -116 -20 -121 1 -121
1 -121 25 0 30 94 854 106 929 3 17 8 32 12 32 4 0 31 -213 61 -472z m-690 23
c27 -49 116 -207 196 -352 81 -145 152 -269 159 -275 8 -9 30 -8 86 2 121 21
351 16 441 -12 18 -5 19 -3 270 449 84 152 157 277 161 277 4 0 5 -6 3 -12 -5
-16 -145 -503 -192 -666 -19 -68 -33 -125 -31 -126 2 -2 29 -17 60 -35 106
-60 200 -144 304 -273 50 -62 56 -66 82 -58 15 5 173 50 352 100 179 50 337
95 353 100 72 24 6 -20 -220 -146 -451 -250 -418 -230 -416 -256 1 -13 10 -54
22 -91 32 -107 43 -237 30 -358 -6 -57 -12 -115 -13 -128 -1 -21 33 -43 309
-197 171 -95 315 -175 320 -177 6 -2 7 -7 4 -11 -4 -4 -156 36 -338 89 -182
52 -338 95 -346 95 -8 0 -26 -23 -40 -50 -101 -199 -299 -400 -394 -400 -43 0
-93 28 -118 67 -16 24 -19 64 -24 413 -7 439 -6 433 -94 617 -63 131 -99 187
-174 266 -71 75 -113 88 -179 55 -70 -34 -148 -135 -226 -291 -107 -212 -109
-226 -114 -661 -4 -406 -4 -409 -65 -446 -45 -28 -99 -25 -150 6 -80 50 -219
202 -280 306 -31 53 -57 101 -57 107 0 6 -8 11 -17 11 -10 0 -166 -43 -348
-95 -181 -52 -334 -95 -340 -95 -20 0 23 30 110 78 118 64 284 156 415 229
103 58 105 60 103 94 -16 239 -15 298 6 403 12 59 28 124 36 145 l13 38 -287
158 c-355 197 -391 218 -391 228 0 5 8 6 18 2 9 -3 136 -40 282 -81 295 -83
439 -125 456 -131 6 -2 28 20 49 49 81 112 205 224 318 288 31 17 57 38 57 45
0 8 -49 187 -110 398 -60 212 -110 388 -110 391 0 17 13 -2 59 -83z m-561
-389 c158 -125 333 -263 389 -307 l101 -80 -81 -82 c-45 -45 -85 -83 -89 -83
-4 0 -93 109 -199 243 -106 133 -244 306 -306 383 -107 134 -121 154 -107 154
3 0 134 -103 292 -228z m2675 216 c-16 -21 -307 -388 -466 -589 l-148 -186
-85 84 c-46 46 -84 86 -84 87 0 2 87 72 193 156 105 85 233 186 282 225 230
183 298 235 307 235 7 0 7 -4 1 -12z m-1419 -995 c40 -33 112 -127 138 -178
58 -113 61 -133 66 -410 4 -291 -2 -341 -49 -398 -117 -142 -363 -130 -455 21
-40 66 -44 91 -44 307 0 346 33 467 168 618 74 82 116 91 176 40z m-1176 -478
l0 -124 -27 5 c-14 2 -165 20 -336 39 -611 69 -641 73 -630 83 5 5 899 116
976 121 15 1 17 -14 17 -124z m2642 75 c190 -22 392 -45 450 -51 58 -6 109
-15 114 -20 12 -10 -11 -14 -369 -54 -170 -19 -371 -42 -445 -51 -74 -8 -144
-16 -154 -17 -18 -2 -19 6 -20 116 -1 65 1 120 3 123 2 2 20 1 40 -1 20 -3
191 -23 381 -45z m-2351 -824 c24 -30 61 -67 82 -83 21 -15 37 -31 36 -35 -1
-3 -83 -71 -183 -150 -614 -487 -612 -485 -603 -460 2 6 104 136 225 289 122
153 259 326 305 385 46 59 86 107 89 107 3 0 25 -24 49 -53z m1875 -181 c83
-104 215 -271 294 -370 79 -99 139 -181 133 -183 -5 -2 -74 48 -153 110 -518
412 -628 500 -628 503 0 2 37 41 83 88 l82 85 19 -22 c10 -11 87 -106 170
-211z m-5056 -1077 l2 -187 118 -3 117 -3 0 -50 0 -50 -177 -3 -178 -2 0 245
0 246 58 -3 57 -3 3 -187z m697 137 l0 -50 -117 -3 -118 -3 0 -39 0 -39 98 -3
97 -3 0 -45 0 -45 -97 -3 -98 -3 0 -44 0 -44 118 -3 117 -3 0 -50 0 -50 -177
-3 -178 -2 0 245 0 245 178 -2 177 -3 0 -50z m413 42 c17 -21 201 -461 196
-469 -3 -5 -29 -8 -59 -8 -52 0 -54 1 -65 35 l-12 35 -121 0 -122 0 -15 -33
c-14 -30 -19 -32 -72 -35 -32 -2 -58 0 -58 3 0 3 43 107 96 233 53 125 98 233
101 240 7 16 117 16 131 -1z m575 -1 c18 -7 47 -29 65 -49 28 -28 35 -46 41
-93 8 -70 -4 -112 -42 -152 -15 -15 -27 -32 -27 -36 0 -5 18 -35 40 -68 22
-33 40 -64 40 -69 0 -5 -28 -9 -62 -9 l-63 0 -34 60 c-34 59 -36 60 -78 60
-27 0 -43 -5 -44 -12 -3 -36 -6 -75 -7 -90 -2 -15 -12 -18 -57 -18 l-55 0 0
245 0 245 125 0 c85 0 136 -5 158 -14z m451 -133 c65 -78 123 -140 128 -137 4
3 8 68 8 145 l0 139 50 0 50 0 0 -245 0 -245 -50 0 -49 0 -122 145 c-66 80
-125 142 -131 139 -5 -3 -9 -20 -8 -38 1 -17 2 -79 1 -138 l-1 -108 -50 0 -50
0 0 246 0 245 52 -3 53 -3 119 -142z m766 92 l0 -54 -82 -3 -83 -3 -3 -187 -2
-188 -50 0 -50 0 -2 188 -3 187 -82 3 -83 3 0 54 0 55 220 0 220 0 0 -55z
m383 41 c39 -16 82 -61 96 -99 24 -62 7 -158 -34 -197 -14 -13 -25 -29 -25
-36 0 -6 18 -39 40 -72 22 -33 40 -62 40 -66 0 -3 -29 -6 -64 -6 l-64 0 -34
58 c-33 55 -35 57 -81 60 l-47 3 0 -60 0 -61 -55 0 -55 0 0 245 0 245 125 0
c84 0 136 -5 158 -14z m307 -68 c85 -134 75 -131 135 -34 73 119 69 116 136
116 33 0 59 -3 59 -6 0 -3 -45 -72 -100 -152 l-100 -146 0 -93 0 -93 -50 0
-50 0 0 90 0 90 -96 142 c-53 78 -98 148 -101 155 -4 10 10 13 55 13 l60 0 52
-82z m538 -160 l-3 -243 -55 0 -55 0 -1 235 c0 129 1 238 3 243 2 4 29 7 59 7
l54 0 -2 -242z m317 65 c44 -95 84 -172 88 -170 5 1 44 79 88 172 l78 170 61
3 60 3 -2 -243 -3 -243 -50 0 -50 0 -5 115 -5 115 -40 -85 c-75 -160 -61 -145
-133 -145 l-64 0 -51 112 c-29 62 -55 113 -59 113 -4 0 -9 -51 -10 -112 l-3
-113 -55 0 -55 0 -2 234 c-1 129 0 238 3 243 3 5 33 8 67 6 l61 -3 81 -172z
m772 166 c133 -50 152 -259 31 -335 -35 -23 -57 -28 -125 -32 l-82 -4 -3 -52
-3 -51 -50 0 -50 0 -3 230 c-1 126 0 235 2 242 7 16 241 18 283 2z m496 -3
c109 -45 142 -206 62 -295 l-34 -37 44 -67 c25 -36 45 -69 45 -72 0 -3 -29 -5
-64 -5 l-65 0 -36 60 c-36 59 -37 60 -80 60 l-44 0 -3 -57 -3 -58 -55 0 -55 0
-3 230 c-1 126 0 235 2 242 7 19 245 18 289 -1z m523 -14 c112 -58 159 -181
115 -300 -27 -72 -68 -114 -139 -141 -69 -27 -115 -26 -179 4 -66 30 -94 58
-128 126 -23 45 -27 62 -22 109 8 97 81 190 172 220 44 14 136 5 181 -18z
m387 -137 c37 -88 72 -164 76 -168 4 -4 36 59 70 140 85 200 80 193 146 193
31 0 55 -4 55 -10 0 -11 -35 -97 -80 -195 -15 -33 -43 -98 -64 -145 -62 -144
-53 -135 -121 -135 l-60 0 -37 70 c-21 39 -38 75 -38 82 0 6 -15 44 -34 85
-127 274 -122 250 -45 246 l63 -3 69 -160z m542 -80 l0 -240 -55 0 -55 0 -3
243 -2 243 57 -3 58 -3 0 -240z m402 221 c39 -19 82 -74 85 -107 3 -22 0 -24
-52 -27 -38 -2 -58 1 -65 11 -29 39 -99 49 -136 18 -21 -18 -22 -21 -9 -34 8
-8 50 -25 93 -36 149 -40 195 -82 184 -165 -10 -73 -110 -132 -210 -124 -101
8 -197 79 -197 144 0 22 4 24 52 24 45 0 55 -4 77 -31 20 -24 37 -32 72 -36
53 -6 89 9 89 37 0 23 -18 34 -90 50 -88 20 -157 55 -175 89 -39 77 4 163 100
199 40 15 143 9 182 -12z m538 -31 l0 -50 -117 -3 -118 -3 0 -39 0 -40 101 0
100 0 -3 -47 -3 -48 -97 -3 -98 -3 0 -44 0 -45 121 0 120 0 -3 -52 -3 -53
-177 -3 -178 -2 0 245 0 245 178 -2 177 -3 0 -50z"/>
<path d="M4610 4531 c64 -129 70 -179 70 -534 0 -296 1 -318 17 -306 9 8 24
32 34 54 16 35 19 69 19 276 0 203 -3 247 -20 313 -23 91 -60 163 -113 220
l-38 41 31 -64z"/>
<path d="M1561 2145 c-18 -42 -35 -83 -38 -91 -4 -11 9 -14 71 -14 42 0 76 2
76 5 0 9 -63 160 -70 168 -4 5 -22 -26 -39 -68z"/>
<path d="M2069 2203 c-1 -27 -2 -59 -3 -73 -1 -24 2 -25 61 -28 56 -3 66 0 88
22 30 31 32 65 4 100 -18 23 -27 26 -85 26 l-64 0 -1 -47z"/>
<path d="M3664 2237 c-3 -8 -4 -41 -2 -73 l3 -59 55 -3 c65 -4 95 10 110 51 8
24 7 36 -8 61 -17 29 -22 31 -85 34 -51 2 -69 -1 -73 -11z"/>
<path d="M5590 2170 l0 -80 64 0 c82 0 116 23 116 79 0 59 -30 81 -113 81
l-67 0 0 -80z"/>
<path d="M6090 2175 l0 -75 60 0 c51 0 65 4 85 25 30 29 32 71 6 103 -16 19
-29 22 -85 22 l-66 0 0 -75z"/>
<path d="M6579 2211 c-42 -37 -44 -41 -44 -94 0 -60 21 -94 77 -123 57 -29
128 -13 178 41 20 21 25 37 25 80 0 43 -5 59 -25 80 -36 39 -73 55 -123 55
-37 0 -51 -6 -88 -39z"/>
</g>
</svg>
